<?xml version="1.0" encoding="UTF-8"?>
<svg width="18px" height="18px" viewBox="0 0 18 18" version="1.1" xmlns="http://www.w3.org/2000/svg" xmlns:xlink="http://www.w3.org/1999/xlink">
    <title>icon-plus</title>
    <g id="Page-1" stroke="none" stroke-width="1" fill="none" fill-rule="evenodd">
        <g id="Desktop-HD" transform="translate(-192.000000, -170.000000)" fill="#000000">
            <g id="icon-plus" transform="translate(192.000000, 170.000000)">
                <path d="M10.1943,1.11509 C10.1943,0.49924 9.6951,0 9.0792,0 C8.4634,0 7.9642,0.49924 7.9642,1.11509 L7.9642,7.8057 L1.1151,7.8057 C0.49925,7.8057 0,8.3049 0,8.9208 C0,9.5366 0.49924,10.0358 1.11509,10.0358 L7.9642,10.0358 L7.9642,16.8849 C7.9642,17.5008 8.4634,18 9.0792,18 C9.6951,18 10.1943,17.5008 10.1943,16.8849 L10.1943,10.0358 L16.8849,10.0358 C17.5008,10.0358 18,9.5366 18,8.9208 C18,8.3049 17.5008,7.8057 16.8849,7.8057 L10.1943,7.8057 L10.1943,1.11509 Z" id="Path"></path>
            </g>
        </g>
    </g>
</svg>