<svg width="24" height="24" viewBox="0 0 24 24" fill="none" xmlns="http://www.w3.org/2000/svg">
<path fill-rule="evenodd" clip-rule="evenodd" d="M20.2929 2.29289C20.6834 1.90237 21.3166 1.90237 21.7071 2.29289C22.0976 2.68342 22.0976 3.31658 21.7071 3.70711L18.297 7.11721C18.7987 7.49865 19.2424 7.90337 19.6306 8.30586C20.4164 9.12085 20.9822 9.93352 21.3526 10.5435C21.5383 10.8494 21.6763 11.1067 21.7696 11.2913C21.8162 11.3837 21.8518 11.4581 21.8766 11.5115C21.889 11.5382 21.8987 11.5597 21.9058 11.5756L21.9144 11.5952L21.9173 11.6017L21.9183 11.6042L21.9188 11.6052C21.919 11.6057 21.9191 11.6061 21 12C21.9191 12.3939 21.919 12.3943 21.9188 12.3948L21.9183 12.3958L21.9173 12.3983L21.9144 12.4048L21.9058 12.4244C21.8987 12.4403 21.889 12.4618 21.8766 12.4885C21.8518 12.5419 21.8162 12.6163 21.7696 12.7087C21.6763 12.8933 21.5383 13.1506 21.3526 13.4565C20.9822 14.0665 20.4164 14.8792 19.6306 15.6941C18.0543 17.3288 15.5601 19 12 19C10.2242 19 8.71354 18.5842 7.44976 17.9645L3.70711 21.7071C3.31658 22.0976 2.68342 22.0976 2.29289 21.7071C1.90237 21.3166 1.90237 20.6834 2.29289 20.2929L20.2929 2.29289ZM8.96694 16.4473C9.84792 16.7884 10.8553 17 12 17C14.8685 17 16.8743 15.6712 18.1909 14.3059C18.8514 13.6208 19.3303 12.9335 19.643 12.4185C19.7392 12.26 19.8192 12.1187 19.8833 12C19.8192 11.8813 19.7392 11.74 19.643 11.5815C19.3303 11.0665 18.8514 10.3792 18.1909 9.69414C17.809 9.29816 17.3692 8.90526 16.8672 8.54697L15.4462 9.96803C15.7981 10.5635 16 11.2582 16 12C16 14.2091 14.2091 16 12 16C11.2582 16 10.5635 15.7981 9.96803 15.4462L8.96694 16.4473ZM11.482 13.9323C11.6472 13.9764 11.8208 14 12 14C13.1046 14 14 13.1046 14 12C14 11.8208 13.9764 11.6472 13.9323 11.482L11.482 13.9323ZM21 12L21.9191 12.3939C22.027 12.1424 22.027 11.8576 21.9191 11.6061L21 12ZM12 5C12.8982 5 13.7285 5.10637 14.4933 5.29169L12.7537 7.03135C12.5093 7.01076 12.2582 7 12 7C9.13149 7 7.12574 8.32877 5.80913 9.69414C5.14858 10.3792 4.6697 11.0665 4.35702 11.5815C4.26075 11.74 4.18081 11.8813 4.11667 12C4.18081 12.1187 4.26075 12.26 4.35702 12.4185C4.64385 12.8909 5.07053 13.5084 5.649 14.136L4.23381 15.5512C3.51805 14.7848 2.99614 14.0308 2.64744 13.4565C2.46175 13.1506 2.3237 12.8933 2.23045 12.7087C2.18379 12.6163 2.14823 12.5419 2.12344 12.4885C2.11104 12.4618 2.10132 12.4403 2.09424 12.4244L2.08559 12.4048L2.08273 12.3983L2.08167 12.3958L2.08123 12.3948C2.08104 12.3943 2.08085 12.3939 2.99979 12.0001L2.08085 12.3939C1.97305 12.1424 1.97305 11.8576 2.08085 11.6061L2.99979 11.9999C2.08085 11.6061 2.08104 11.6057 2.08123 11.6052L2.08167 11.6042L2.08273 11.6017L2.08559 11.5952L2.09424 11.5756C2.10132 11.5597 2.11104 11.5382 2.12344 11.5115C2.14823 11.4581 2.18379 11.3837 2.23045 11.2913C2.3237 11.1067 2.46175 10.8494 2.64744 10.5435C3.0178 9.93352 3.58356 9.12085 4.36944 8.30586C5.94569 6.67123 8.43994 5 12 5ZM8.006 11.779C8.11671 9.74581 9.74581 8.11671 11.779 8.006L8.006 11.779Z" fill="#131316"/>
</svg>
